Chapter 2 The Roadmap for Targeted Learning | [ACIC 2022] Targeted Learning in the tlverse
…
improved nutrition through counseling and provision of lipid-based nutrient
supplements; and

combined water, sanitation, handwashing, and nutrition.

In the workshop, we concentrate on child growth (size for age) as the outcome of
interest. For reference, this trial was registered with ClinicalTrials.gov as
NCT01590095.

library(tidyverse)

# read in data
dat <- read_csv("https://raw.githubusercontent.com/tlverse/tlverse-data/master/wash-benefits/washb_data.csv")
dat
# A tibble: 4,695 × 28
    whz tr      fracode month  aged sex    momage momedu momheight hfiacat Nlt18
  <dbl> <chr>   <chr>   <dbl> <dbl> <chr>   <dbl> <chr>      <dbl> <chr>   <dbl>
1  0    Control N05265      9   268 male       30 Prima…      146. Food S…     3
2 -1.16 Control N05265      9   286 male       25 Prima…      149. Modera…     2
3 -1.05 Control N08002      9   264 male       25 Prima…      152. Food S…     1
4 -1.26 Control N08002      9   252 female     28 Prima…      140. Food S…     3
5 -0.59 Control N06531      9   336 female     19 Secon…      151. Food S…     2
# … with 4,690 more rows, and 17 more variables: Ncomp <dbl>, watmin <dbl>,
#   elec <dbl>, floor <dbl>, walls <dbl>, roof <dbl>, asset_wardrobe <dbl>,
#   asset_table <dbl>, asset_chair <dbl>, asset_khat <dbl>, asset_chouki <dbl>,
#   asset_tv <dbl>, asset_refrig <dbl>, asset_bike <dbl>, asset_moto <dbl>,
#   asset_sewmach <dbl>, asset_mobile <dbl>
…
